spectralCentroidMA,stdAx,corrAyMA,stdAz,spectralEntropyAx,trapzAy,spectralEntropyAy,aavMA,stdMG,spectralSpreadAz
0.629,-1.218,-1.545,-0.866,-0.14,-1.165,1.482,-1.198,0.197,0.659
1.369,-0.407,-0.329,0.768,0.432,-1.383,1.275,0.213,1.305,1.005
0.851,-0.58,-1.218,0.22,0.808,-1.232,1.89,-0.411,1.191,0.403
1.922,-0.019,-0.893,1.026,1.57,-0.357,1.534,1.841,0.141,0.396
-0.416,-0.871,0.886,-0.381,1.124,0.427,-0.925,-0.751,-0.617,-0.411
0.471,0.731,-0.954,0.712,0.354,-0.099,1.057,0.633,-0.25,0.405
-0.661,-0.509,1.036,0.344,0.984,0.493,-0.841,-0.377,0.843,-0.141
1.16,0.931,-0.486,1.404,1.161,0.035,1.303,1.587,0.249,0.834
-0.832,-0.792,0.965,-0.423,-0.139,0.161,-1.041,-0.386,-0.13,-0.669
1.519,0.573,-0.453,0.708,1.558,-0.009,0.749,2.214,-0.273,1.119
-0.355,-0.215,0.832,-0.381,0.444,0.272,-0.833,-0.642,0.5,-0.501
2.949,0.274,-1.758,0.195,1.586,-0.528,1.602,1.385,-0.164,1.19
-0.943,-0.984,1.008,-0.391,-0.366,0.111,-1.431,-0.881,-0.386,-0.892
1.007,0.934,-0.405,1.01,1.452,0.011,0.588,2.062,0.208,0.062
-1.036,-0.876,1.038,-0.274,-0.818,0.131,-0.319,-0.767,-0.435,-0.518
0.362,-0.594,0.649,-0.673,1.105,0.481,-0.322,-0.577,-0.362,0.368
0.025,-0.533,1.229,-0.428,1.253,0.696,-0.436,-0.705,0.175,0.257
-1.133,0.012,0.638,-0.958,-1.462,0.356,-1.4,-0.629,-0.125,-0.441
-0.375,-0.979,1.193,-0.36,0.286,0.564,-0.771,-0.593,-0.427,0.379
-1.387,-0.845,0.875,-1.106,-1.871,0.012,-1.402,-1.06,-0.938,-0.004
1.451,0.075,-0.551,0.155,1.465,-0.165,1.31,1.173,0.295,0.611
-1.046,-0.712,1.115,0.045,-0.978,0.066,-0.859,-0.239,0.142,-0.617
0.906,0.245,-0.183,0.179,1.28,0.183,0.527,1.065,0.422,0.755
-1.348,-1.044,1.119,0.123,-0.94,0.508,-1.427,-0.595,0.596,-1.18
0.724,0.125,-0.975,0.001,0.969,-0.403,0.639,0.454,-0.007,-0.038
-1.265,-0.137,1.11,-0.14,-0.935,0.474,-1.102,-0.592,0.902,-0.67
0.988,-1.068,0.577,-1.009,0.885,-0.427,0.496,-0.944,-1.033,0.7
-0.086,-0.033,1.238,-0.07,1.264,1.027,-0.836,0.061,0.781,0.499
-0.315,-0.447,1.043,-0.971,0.689,0.66,-1.232,-0.674,0.224,1.256
-0.61,-0.425,1.26,0.666,1.11,1.205,-0.783,0.17,0.914,0.326
0.821,-0.395,-2.146,0.302,1.37,-0.422,1.466,0.431,-0.433,0.441
-1.116,-0.362,1.013,0.21,-0.726,0.35,-0.728,-0.262,0.248,-0.841
-0.679,-0.726,0.615,-0.693,-0.766,-0.4,-0.798,-0.933,-0.677,0.553
1.607,0.261,-0.171,-0.102,1.215,-0.159,0.42,0.995,0.223,0.691
-0.961,-0.792,1.183,0.284,-0.849,0.452,-1.128,-0.179,0.784,-1.089
1.384,-0.418,0.842,-1.131,1.293,0.622,0.035,-0.822,-0.411,0.452
1.608,0.747,-1.423,0.336,1.459,-0.027,0.682,2.114,0.332,1.27
0.893,-0.19,-2.715,-0.122,0.953,-0.484,0.397,0.077,0.211,-0.471
1.018,0.628,0.454,0.374,0.4,0.016,0.353,1.144,-0.277,0.044
-1.136,-0.634,1.141,0.47,-0.507,1.549,-1.149,-0.469,0.59,-1.218
-0.314,0.439,0.743,0.433,1.352,1.377,-0.481,1.467,0.228,0.614
1.05,-0.123,-1.862,-0.492,0.447,-0.122,-1.028,-0.699,0.082,-0.456
-1.27,-0.852,1.19,0.776,-0.79,1.06,-1.27,-0.057,0.686,-1.343
-0.032,1.601,0.56,0.567,-0.042,0.249,-0.183,1.567,1.163,-0.467
-1.123,0.024,1.198,0.831,-0.091,1.471,-1.126,-0.107,1.121,-1.162
0.119,2.1,0.567,0.142,0.256,1.548,-0.416,2.07,1.473,0.569
-0.862,-1.106,1.198,1.153,-0.138,1.533,-0.775,0.151,0.637,-1.443
-0.299,1.962,0.407,0.575,0.288,1.289,-0.307,2.173,1.415,0.212
-1.069,-1.061,1.197,1.053,-0.014,1.772,-1.043,0.14,0.829,-1.266
-0.709,0.345,0.278,-1.31,-1.904,0.032,-0.491,-0.662,-1.187,0.796
-0.719,-1.022,1.251,0.252,0.777,1.69,-1.055,0.069,0.454,0.413
0.683,1.08,0.808,0.403,0.481,0.933,-0.055,1.915,1.165,1.549
-1.225,-0.512,1.233,0.439,-0.357,1.916,-1.221,-0.088,1.063,-1.208
-0.385,-0.301,0.744,-1.126,0.355,0.366,-0.572,-0.691,-0.829,0.603
-1.011,-0.94,1.242,0.232,0.72,1.83,-1.198,-0.024,0.322,-0.219
-1.056,1.031,1.068,-0.182,-1.612,1.174,-1.443,0.811,1.604,-1.045
-1.256,-1.297,1.196,1.141,-0.545,1.657,-1.487,0.086,0.675,-1.263
-0.616,0.473,0.522,-0.949,-0.119,0.533,-0.347,-0.594,-0.312,0.981
-1.219,-1.179,1.24,0.376,0.205,1.868,-1.43,-0.244,0.292,-1.127
-0.311,1.474,0.664,0.282,-0.331,0.925,-0.273,1.418,1.038,1.11
-1.017,-0.266,1.23,1.286,0.001,1.5,-0.82,0.157,1.151,-1.095
-0.587,-0.907,-0.981,-1.392,-1.648,-0.28,-0.942,-1.422,-1.78,0.732
-1.247,-0.966,1.204,0.175,0.714,1.634,-1.313,-0.316,0.599,-1.028
-1.018,1.125,0.769,-0.753,-1.692,1.134,-0.913,0.44,1.246,0.839
-1.123,-0.718,1.231,0.775,0.141,1.939,-1.193,0.323,0.728,-0.279
-0.831,2.798,0.792,1.318,-0.567,1.979,-0.52,2.987,1.703,0.2
-0.511,0.403,-0.169,-1.245,-0.499,-0.34,-0.747,-0.309,-1.417,-0.058
-0.599,-0.006,0.172,-0.95,-0.492,-0.019,-0.772,-0.414,-1.592,-0.251
-1.293,-0.4,1.201,0.226,-0.766,1.229,-1.195,-0.456,1.02,-0.365
-0.47,0.548,0.586,-0.611,-0.727,0.764,-0.206,-0.195,-0.616,0.474
-1.103,-0.895,1.228,0.736,0.564,1.887,-1.26,0.047,0.707,-0.002
-0.144,1.107,0.722,0.391,0.31,1.116,-0.157,1.716,1.249,0.324
-1.381,-1.164,1.112,0.417,-0.506,1.037,-1.612,-0.619,0.112,-1.172
-1.175,1.816,1.116,0.158,-2.12,0.944,-2.024,0.795,0.757,-0.014
1.109,0.685,1.011,-0.412,0.107,0.18,0.938,-0.413,-0.213,0.32
-1.179,-0.653,-0.711,-1.113,-1.93,-1.081,0.257,-1.172,-1.752,0.446
-1.307,-1.264,1.05,-0.411,-0.347,0.292,-1.428,-1.247,-0.406,-0.33
0.687,2.035,0.551,0.501,0.945,0.338,0.703,2.076,1.007,1.571
-1.118,-1.023,0.94,-0.373,-0.343,0.187,-1.473,-0.786,-0.149,-0.593
-0.216,1.569,1.055,0.066,0.709,1.233,-0.449,2.592,1.133,2.031
1.749,1.039,0.743,0.62,1.478,0.84,0.909,2.169,1.32,1.968
1.318,1.165,0.933,0.164,0.972,0.659,0.508,1.973,1.192,2.039
0.055,1.069,0.683,0.739,1.162,1.028,0.214,1.955,1.679,0.376
1.136,-0.461,-0.18,-0.073,1.835,-0.375,1.431,0.068,-0.967,0.435
-0.769,0.307,0.777,-0.873,-0.758,0.493,-0.75,0.26,0.025,-0.379
-1.243,-0.308,0.052,-1.311,-2.167,-0.279,-0.991,-0.654,-1.434,0.563
-0.666,-0.798,-0.897,-0.464,-0.87,-0.44,-0.246,-1.185,-0.403,-0.58
-1.258,0.625,0.645,-0.936,-0.695,0.492,-1.164,0.072,0.568,-0.251
-0.442,-0.499,0.649,-0.437,-0.048,0.48,-0.793,-0.866,-0.323,-0.77
-0.541,0.271,0.331,-0.294,0.797,1.105,-0.665,0.019,0.575,0.435
0.679,0.65,-0.031,1.207,1.435,0.239,0.622,1.77,0.475,0.079
-1.093,-1.196,0.991,-0.198,-0.565,0.001,-2.232,-1.252,-0.57,-0.78
0.291,1.017,0.34,-0.353,0.77,0.607,-0.491,1.03,0.858,2.347
0.851,1.025,0.618,0.835,1.223,0.089,-0.172,2.923,0.834,0.026
-0.58,-0.698,0.789,-0.39,0.826,-0.004,-1.293,-0.759,-0.189,-0.51
0.782,1.082,0.599,0.07,1.299,0.055,0.051,1.695,0.63,0.164
-1.008,-1.042,0.625,-0.898,-0.8,-0.237,-0.685,-1.383,-0.467,-0.464
1.101,0.978,0.077,0.834,1.632,-0.064,0.337,2.135,0.62,0.76
-1.021,-0.497,0.995,0.522,-0.007,0.01,-1.292,-0.311,1.324,-1.184
-0.467,0.495,0.561,-0.691,-0.414,1.018,-0.501,0.176,0.353,0.235
0.544,0.989,0.525,0.262,1.014,0.051,0.392,1.888,0.209,0.298
-0.463,-1.045,0.578,-0.553,0.085,0.086,-1.434,-1.205,-0.063,-0.969
-0.27,2.224,0.644,-0.027,0.405,0.666,-0.324,1.015,0.653,-0.068
-1.244,-1.073,1.052,-0.525,-0.428,0.461,-1.44,-1.296,-0.334,-0.402
0.625,1.311,0.478,0.626,0.722,0.337,0.156,1.923,0.631,0.052
-1.465,-0.923,1.105,0.161,-0.607,1.021,-1.326,-0.81,0.024,-1.103
0.972,2.916,0.217,0.479,0.428,0.172,0.666,2.486,0.894,0.452
-0.888,-0.581,1.205,-0.32,-0.069,0.872,-1.343,-0.46,1.078,-0.617
0.958,0.836,0.854,-0.081,1.159,-0.192,-0.12,1.162,0.83,0.519
-1.344,-1.109,1.221,-0.598,-0.582,0.836,-1.884,-1.051,0.413,-0.101
0.027,0.913,0.702,-0.53,0.49,1.026,-0.411,1.331,0.371,0.841
-1.643,-1.253,1.07,-0.124,-1.379,0.679,-1.673,-1.081,-0.469,-0.816
0.165,2.42,0.793,0.182,0.055,0.803,-0.305,1.323,0.978,0.32
-1.402,-0.998,1.14,-0.331,-1.535,0.737,-1.638,-0.85,-0.193,-1.122
0.465,1.875,0.712,0.524,0.411,0.455,0.626,1.369,0.735,-0.266
-1.154,-1.316,1.195,-0.03,-1.067,0.588,-1.771,-0.713,-0.31,-1.327
-1.527,0.172,1.102,-1.139,-2.548,0.879,-1.698,-0.463,0.043,-0.033
-1.442,-0.892,1.225,-0.422,-0.548,0.681,-1.504,-0.871,0.59,-0.633
0.671,1.602,0.091,0.432,0.159,-0.021,0.446,1.067,-0.003,0.055
-1.292,-1.163,1.17,-0.122,-0.177,0.74,-1.142,-1.057,-0.159,-1.153
-0.193,1.685,0.627,-0.078,-0.001,0.695,-0.131,0.405,1.026,2.447
-1.403,-1.099,0.25,-1.319,-2.525,0.204,-1.771,-1.446,-1.134,0.201
-0.26,-1.247,0.827,-0.843,0.153,-0.318,-0.024,-1.346,-1.6,-0.515
-1.384,-1.397,0.782,-0.245,-1.482,0.103,-1.357,-1.443,-1,-0.817
-1.275,1.609,0.027,-0.552,-2.375,-0.234,-0.984,-0.169,0.191,-0.633
-0.956,-1.172,0.985,-0.239,0.156,0.624,-0.611,-0.682,0.022,-0.836
-0.916,1.499,-0.051,0.064,-0.808,0.323,-0.809,0.547,0.73,0.177
-0.971,-0.722,-1.942,0.456,0.835,0.188,-0.566,-0.473,-0.126,-0.436
-0.953,2.099,-0.545,-0.567,-1.38,0.176,-0.781,0.793,0.766,-0.362
-1.389,-0.946,0.843,0.501,-0.996,0.59,-2.289,-0.87,-0.233,-1.376
-0.653,1.952,-0.662,-0.362,-0.37,-0.248,-0.819,0.577,0.433,0.273
-0.634,-0.685,-1.925,-0.166,0.568,-0.104,-0.393,-0.396,-0.457,-0.412
-0.608,2.021,0.237,-0.287,-0.574,0.278,-0.521,0.571,0.551,0.072
-0.024,-0.742,-0.777,-0.076,1.018,-0.015,-0.504,-0.504,0.053,-0.335
-0.872,2.002,0.299,-0.719,-1.042,0.457,-0.61,0.475,0.312,0.252
-0.912,-0.309,-1.178,-0.224,-0.255,0.339,-1.48,-0.786,-0.844,0.144
-0.747,1.911,0.312,-0.487,-0.816,0.703,-0.634,0.55,1.022,0.096
1.445,0.409,-0.634,0.284,0.82,0.554,1.098,0.113,0.129,-0.839
-0.867,2.311,0.159,-0.636,-0.656,0.229,-0.77,0.467,0.727,0.545
-0.935,-1.11,0.234,-0.026,-0.204,0.525,-0.202,-0.883,-0.136,-0.894
-0.477,1.537,-0.34,-0.654,-0.392,0.218,-0.485,0.328,0.304,0.634
-0.706,-1.01,-1.016,0.162,0.711,0.164,-1.117,-0.438,0.167,-0.461
-0.604,2.145,-0.012,-0.663,-0.481,0.192,-0.513,0.488,0.527,0.458
-0.344,-0.631,-0.98,0.015,0.961,0.349,-0.427,-0.716,-0.742,-1.155
-0.584,2.012,0.21,-0.217,-1.085,0.503,-0.712,0.792,0.781,1.154
-0.974,-0.936,-0.17,-0.319,-0.028,0.412,-0.218,-0.741,0.002,-0.662
-0.463,1.191,0.214,-0.233,-0.058,0.369,-0.729,0.522,0.494,0.587
-0.626,-0.756,-1.661,0.352,1.039,0.008,-1.458,-0.569,0.067,-0.658
1.916,-0.452,-2.098,-0.408,1.7,-0.156,-0.067,-0.376,-0.4,1.011
-0.064,-0.772,-0.562,0.21,2.011,0.02,0.087,-0.547,-0.79,1.688
0.537,-0.819,-0.589,-0.142,1.082,-0.095,0.452,-0.497,-0.981,-0.163
0.929,-1.037,-0.544,-0.151,1.294,-0.127,0.621,-0.68,-0.678,1.01
1.783,-0.789,-2.112,-0.397,1.577,-0.357,0.139,-0.381,-1.184,1.112
-0.802,-1.075,-0.483,-0.279,-0.178,0.084,-1.135,-1.022,-0.872,0.174
1.421,-0.954,0.475,-0.184,1.911,0.286,-0.591,-0.274,-0.778,0.897
0.25,-0.423,-2.592,-0.404,0.367,0.1,0.183,-0.417,0.807,0.094
0.066,-1.065,-0.34,0.104,1.327,0.094,-0.868,-0.569,-0.427,0.391
-0.053,-0.513,0.187,-0.223,0.883,0.195,-0.647,-0.318,-0.487,0.628
0.258,-0.671,0.347,-0.269,0.799,0.163,-0.201,-0.647,-0.366,-0.004
0.558,-0.997,-0.87,0.411,1.939,-0.884,1.167,-0.311,-1.072,0.015
-1.015,-1.411,0.915,-0.266,1.043,0.371,-0.831,-1.059,-0.092,-0.628
0.606,-0.855,-1.176,0.125,1.809,-0.956,0.825,-0.009,-0.969,-0.261
-1.167,-1.237,0.924,-0.518,-0.116,0.369,-1.186,-1.184,-0.803,-0.587
1.324,-0.656,-0.414,0.213,2.105,-0.853,1.461,-0.12,-1.18,0.084
-1.529,-1.372,1.112,-0.139,-0.529,0.716,-1.495,-1.046,0.008,-0.898
1.871,-0.897,-0.489,0.179,1.268,-0.768,1.308,0.204,-1.424,0.43
-1.296,-1.191,1.144,-0.31,-0.052,0.821,-1.278,-1.063,-0.073,-0.439
0.539,-0.715,-0.218,0.376,1.704,-0.845,1.735,0.104,-0.897,0.251
-1.283,-1.153,1.174,-0.364,0.203,0.587,-1.708,-0.857,0.075,-0.631
1.834,-0.407,-0.196,0.155,1.547,-0.826,1.693,0.789,-0.626,1.035
-1.131,-0.9,1.134,-0.186,-0.171,1.154,-1.416,-0.6,0.135,-1.291
0.534,-0.756,-0.729,-0.153,1.523,-0.642,1.568,-0.472,-0.96,0.333
-1.333,-0.489,1.185,-0.356,-0.878,0.938,-1.564,-0.763,0.863,-0.185
-1.442,-0.717,0.605,-1.172,-1.91,0.346,-1.855,-1.114,-1.18,0.516
1.075,-0.408,-0.498,0.139,1.63,-0.675,1.091,0.27,-0.93,0.235
-1.211,-1.333,1.189,-0.124,0.167,0.954,-1.312,-0.758,0.318,-0.781
0.627,-0.805,0.165,-0.138,1.632,-0.492,1.331,-0.454,-0.914,0.755
-0.928,-0.447,1.215,-0.09,-0.265,0.85,-0.888,-0.524,0.639,-0.692
0.984,-0.886,-0.041,0.054,1.589,-0.497,0.919,-0.019,-0.723,0.563
-1.321,-0.525,1.232,-0.377,-0.426,1.008,-1.247,-0.616,0.678,-0.812
1.37,-0.88,0.504,-0.121,1.178,-0.362,1.05,-0.139,-0.741,0.406
-0.901,-0.738,1.168,0.055,0.506,0.895,-0.785,-0.493,0.364,-0.71
1.023,0.17,-0.71,-0.152,1.481,0.011,0.592,1.162,0.079,0.219
1.235,0.577,-0.402,0.78,1.199,0.227,0.901,1.655,0.059,1.27
1.607,0.224,-0.051,0.054,1.25,0.209,1.199,1.136,-0.17,1.15
-0.116,0.101,-0.112,-0.089,0.145,0.221,0.02,0.43,-0.452,-0.37
0.436,0.218,0.657,-0.196,0.831,0.174,0.293,0.497,0.065,-0.054
1.034,-0.025,0.598,0.437,1.122,0.971,0.734,1.244,0.559,1.269
-1.284,1.549,0.515,-0.18,-1.328,0.684,-1.505,0.455,1.036,-0.754
-0.276,1.018,0.834,-0.593,0.776,0.773,0.032,1.337,1.031,1.973
0.266,0.949,0.478,-0.263,0.455,0.466,0.51,1.962,0.477,0.894
0.298,0.935,0.694,-0.113,-0.43,0.701,0.02,1.912,0.728,0.671
1.68,-0.304,-0.765,0.415,0.662,-1.178,1.971,0.083,0.829,0.765
1.806,-0.234,-1.209,0.304,0.927,-0.218,1.445,0.372,0.032,0.732
0.393,1.28,0.428,0.298,0.61,0.841,0.539,1.438,0.738,0.986
1.279,-0.346,0.015,0.436,1.521,-0.177,1.116,0.926,-0.597,0.862
0.47,2.232,0.285,-0.046,0.559,0.422,0.721,1.313,1.26,2.336
0.445,1.37,0.525,-0.018,0.91,0.597,0.034,1.24,1.393,1.537
1.235,-0.111,-0.328,0.093,1.654,-0.134,0.602,0.653,-0.054,1.485
-1.573,0.921,1.238,4.962,-0.772,3.898,-2.088,0.909,2.643,-1.95
-1.442,0.337,1.282,4.322,-0.303,3.962,-2.023,0.792,2.593,-2.117
-0.972,-1.177,0.277,-0.943,0.364,-0.508,-0.101,-1.427,-1.467,1.467
-1.653,0.159,1.295,3.802,0.294,4.313,-1.818,0.733,2.302,-1.784
0.043,-1.057,0.498,-1.274,0.432,-0.466,-0.678,-1.472,-1.051,0.04
-1.693,0.474,1.29,4.785,0.022,4.212,-1.911,0.796,2.845,-2.113
0.146,-1.236,0.518,-1.054,0.183,-0.651,-0.959,-1.374,-1.516,0.226
-1.549,0.278,1.283,4.816,-0.006,4.288,-1.98,0.961,3.046,-1.904
-0.213,-0.93,0.073,-0.747,0.986,-0.638,-0.144,-0.99,-1.467,0.416
-1.555,0.22,1.301,4.569,0.508,4.241,-1.648,0.713,2.949,-1.768
-1.229,-0.353,-0.772,-1.449,-1.936,-0.415,-1.141,-0.878,-1.842,0.854
0.313,-0.731,0.91,-0.956,0.963,-0.773,-0.263,-0.838,-1.48,1.175
-1.439,-0.288,1.301,3.492,0.498,4.428,-1.74,0.88,2.44,-1.614
-0.701,-0.508,0.598,-1.14,0.002,-0.884,-0.338,-1.03,-1.532,0.644
-1.668,0.797,1.287,4.469,-0.136,4.309,-1.749,0.911,2.898,-1.99
-0.239,-1.162,0.186,-1.019,0.349,-0.586,0.034,-1.555,-1.369,0.254
-1.7,-0.31,1.287,4.012,0.055,4.395,-1.712,0.949,2.363,-1.398
-0.671,-1.039,0.643,-0.684,-0.502,-1.017,-0.365,-1.238,-1.407,1.764
-1.41,-0.276,1.304,4.149,0.41,4.163,-1.763,0.634,2.69,-1.8
-0.186,-1.126,0.36,-0.551,0.63,-0.548,-0.699,-1.222,-1.353,1.398
-1.416,0.618,1.293,4.721,-0.411,4.304,-1.891,1.035,2.671,-2.012
-1.243,-0.386,1.274,1.61,0.529,2.199,-1.064,0.455,1.062,-1.487
-0.709,-1.054,0.543,-1.109,0.584,-0.538,-0.684,-1.549,-1.581,0.896
-1.518,-0.497,1.271,2.701,-0.252,3.461,-1.866,1.028,1.318,-1.919
0.158,-0.957,-0.779,-0.958,0.58,-0.516,-0.346,-1.365,-1.295,1.174
-1.476,-0.404,1.309,1.468,-0.157,2.04,-1.462,0.234,1.267,-1.746
-0.926,-1.329,0.562,-0.987,0.654,-0.429,-0.357,-1.558,-1.528,0.97
-1.359,-0.101,1.242,1.61,-0.774,2.387,-1.439,0.648,0.979,-1.242
-0.859,-1.132,0.489,-1.219,0.512,-0.417,-0.733,-1.45,-1.587,1.433
-1.227,-0.219,1.212,1.803,-0.667,2.22,-1.189,0.673,1.476,-1.709
0.185,-1.283,-1.541,-0.679,0.282,-0.683,-0.232,-1.204,-1.572,1.328
-1.32,-0.437,1.291,1.762,-0.289,2.429,-1.462,0.732,1.319,-1.718
0.197,-0.968,0.951,0.566,0.104,0.192,0.017,-0.737,-0.147,0.848
-1.349,-0.196,1.235,1.723,-0.656,2.44,-1.239,0.631,1.245,-1.442
-0.265,-0.908,-0.587,-0.664,-0.445,-0.755,0.219,-1.048,-1.337,0.449
-1.553,-0.509,1.256,2.679,-0.631,2.948,-1.822,0.91,1.387,-2.032
0.646,-0.786,0.928,-0.007,0.347,0.053,-0.2,-0.601,-0.62,0.679
-1.279,-0.403,1.281,1.321,-0.045,1.998,-1.439,0.609,0.998,-1.709
-0.768,-0.163,0.844,-1.146,0.066,-0.094,-0.615,-0.443,-1.25,0.779
-1.424,-0.313,1.296,1.475,-1.41,2.324,-1.495,0.668,1.098,-1.594
0.839,-1.153,0.496,-0.76,-0.21,-0.823,0.649,-1.165,-1.477,0.457
-1.376,-0.233,1.293,1.675,-0.598,2.482,-1.632,0.851,1.357,-1.86
1.366,-0.181,-1.67,0.677,1.261,-0.86,0.718,1.077,-0.929,0.629
-1.279,-1.282,0.515,-0.588,-1.095,-0.051,-1.091,-1.294,-0.936,-0.456
1.818,-0.491,-1.086,0.412,0.959,-1.289,0.812,1.248,-0.738,0.893
0.342,-0.011,-1.184,0.096,0.611,-0.742,1.108,0.262,-0.501,0.475
1.058,0.04,-1.027,0.259,1.1,-0.883,1.39,0.476,-0.588,0.705
0.135,0.039,-1.422,-0.148,0.509,-0.843,0.7,0.029,-0.793,0.208
0.021,-0.075,-1.056,-0.075,-0.17,-0.603,0.041,-0.082,-0.821,0.374
0.888,0.066,-0.554,-0.097,0.807,-0.566,0.369,0.102,-0.911,-0.337
1.001,-0.038,0.152,-0.137,0.755,-0.166,0.249,0.563,-0.601,-0.134
0.674,0.274,-0.814,-0.077,0.504,-0.385,-0.053,0.444,-0.584,-0.086
1.098,0.153,-0.383,-0.023,0.697,-0.511,0.645,0.408,-0.568,-0.229
-1.433,0.271,0.43,-0.871,-1.835,0.621,-1.496,-0.858,0.034,-0.091
-1.185,0.504,0.568,-0.68,-1.636,0.69,-1.361,-0.869,0.02,-0.178
-1.35,0.342,0.413,-0.775,-1.667,0.409,-1.515,-0.871,-0.449,-0.282
-1.143,0.342,0.504,-0.842,-1.386,0.556,-1.073,-0.778,-0.44,0.038
-1.319,0.562,0.177,-0.998,-1.23,0.461,-1.117,-0.897,-0.14,-0.089
-0.997,2.981,0.389,-0.21,-0.807,1.913,-0.97,1.52,1.73,-1.06
-1.433,3.125,0.487,-0.353,-2.05,2.094,-1.406,1.237,1.484,-0.877
-1.002,2.845,-0.1,-0.674,-1.757,1.574,-0.84,1.058,1.101,-0.19
-0.666,2.054,0.308,-0.165,-0.868,1.426,-0.581,0.71,0.542,-0.466
-1.198,2.193,0.097,-0.468,-1.477,1.154,-1.282,0.9,0.617,-0.459
-1.013,1.707,0.392,-0.874,-1.711,1.249,-1.065,0.506,0.381,-0.377
-1.163,-1.005,0.892,-1.311,-1.717,-0.005,-1.784,-1.367,0.485,0.322
-1.287,-1.088,0.945,-1.124,-0.246,0.029,-1.473,-1.496,0.298,0.096
-0.589,-0.862,0.273,-1.149,-0.118,-0.317,-0.67,-1.119,-0.035,0.314
-1.335,0.131,0.797,-0.101,-1.1,1.172,-1.539,-0.457,0.12,-0.371
-1.217,0.576,0.548,-0.166,-2.007,1.057,-1.487,-0.351,-0.173,-0.964
0.348,-0.7,0.11,-0.406,0.66,-0.361,0.266,-0.383,-1.035,-0.203
-1.47,0.492,0.643,-0.069,-0.473,1.335,-1.347,-0.594,0.349,-0.565
-0.402,-1.091,0.282,-0.973,1.125,-0.743,0.157,-1.346,-1.526,0.441
-1.252,0.034,0.788,-0.096,-0.976,1.249,-1.132,-0.357,-0.234,-1.113
0.329,-1.035,0.487,-1.143,0.244,-0.984,0.435,-1.041,-1.636,-0.115
-1.45,-0.019,0.721,0.063,-0.921,1.177,-1.493,-0.636,-0.53,-0.696
-0.26,-0.776,0.315,-1.078,-0.018,-0.312,-0.042,-1.191,-1.317,0.966
-1.369,0.408,0.846,-0.116,-1.171,1.218,-1.279,-0.217,0.078,-0.528
-0.861,-1.326,0.064,-1.035,0.566,-0.692,-0.102,-1.548,-1.454,0.591
-1.592,0.231,0.929,-0.266,-1.239,1.068,-1.449,-0.841,-0.762,-0.928
-1.367,0.124,0.821,0.144,-0.701,1.273,-1.214,-0.59,-0.63,-0.415
-1.03,-0.344,0.614,-1.404,-1.732,-0.216,-1.393,-0.641,-1.754,0.578
-0.236,-1.083,0.475,-1.07,0.141,-0.47,-0.258,-1.439,-1.297,0.571
-1.176,0.532,0.828,-0.213,-0.695,1.721,-1.476,-0.32,-0.434,-0.929
-0.903,-0.673,0.986,-1.534,-2.021,-0.086,-0.898,-0.577,-1.662,0.8
-1.497,0.159,0.661,-0.036,-1.173,1.388,-1.457,-0.809,-0.76,-0.988
-0.207,-1.187,0.44,-1.004,0.843,-0.829,-0.432,-1.372,-0.722,2.072
-1.404,0.127,0.795,0.189,-1.102,1.334,-1.39,-0.435,-0.492,-0.685
-1.016,-0.334,-0.118,-1.582,-2.271,-0.336,-1.061,-0.809,-1.458,0.74
-0.28,-0.469,0.691,-0.884,-0.294,-0.495,-0.274,-0.671,-1.629,1.273
-1.28,0.797,0.677,-0.725,-1.727,1.376,-1.332,-0.364,-0.357,-0.712
-0.294,-0.934,0.634,-1.2,0.435,-0.64,-0.61,-1.075,-1.728,1.256
-1.263,1.147,0.696,-0.33,-1.002,1.512,-1.5,-0.439,-0.472,-1.128
0.07,-0.645,0.084,-0.725,-0.365,-0.97,0.434,-0.725,-1.553,1.176
-0.406,0.715,0.542,-0.396,0.24,0.964,-0.934,-0.534,-0.011,0.847
-0.397,-0.985,0.712,-1.365,0.25,-0.527,-1.061,-1.505,-1.023,0.694
-1.432,1.455,0.45,-0.468,-1.231,1.386,-1.263,-0.456,0.584,-0.969
-0.398,-1.027,0.801,-0.698,0.278,-0.555,-0.261,-1.121,-1.785,0.715
-0.002,1.211,0.3,-0.359,0.082,1.53,-0.968,-0.017,-0.16,0.024
-0.041,-0.933,0.814,-1.37,0.36,-0.166,-0.97,-1.247,-1.318,1.402
-1.378,0.613,-0.056,-0.902,-1.943,0.864,-1.249,-0.991,-0.417,-0.555
-1.35,1.422,0.584,-0.368,-1.616,1.633,-1.429,-0.178,0.581,-1.02
-1.1,0.709,0.186,-1.307,-1.226,0.185,-0.694,-0.167,-0.911,0.369
-1.204,0.455,0.487,-1.282,-1.73,0.658,-1.217,-0.184,-0.713,0.17
-0.822,0.037,-0.139,-1.128,-2.207,-0.293,0.065,-0.453,-1.059,0.34
-0.709,-0.294,0.26,-0.904,-0.633,-0.472,0.11,-0.266,-1.579,0.122
-1.303,1.323,0.774,-0.655,-1.37,1.449,-1.341,-0.191,0.47,-0.823
-1.392,0.699,0.182,-0.756,-1.445,1.176,-1.797,-0.651,-0.256,-0.755
-0.189,-1.27,1.141,-1.506,1.051,0.069,-1.426,-1.448,-1.352,0.347
-1.584,0.396,0.875,-0.766,-1.712,1.363,-1.775,-0.79,0.569,-0.784
-0.055,-0.994,1.172,-1.399,0.66,-0.312,-1.447,-1.303,-1.204,0.459
0.237,0.875,0.631,-0.493,0.322,1.386,-0.785,-0.167,0.507,0.171
-0.385,-1.447,0.718,-1.03,-0.616,-0.609,-0.287,-1.569,-1.666,1.046
-1.022,0.892,0.494,-1.169,-1.086,0.468,-1.364,-0.273,-0.294,0.159
-0.988,-0.017,0.711,-1.272,-1.924,-0.43,-0.666,-0.212,-1.547,0.646
-0.919,0.011,0.598,-1.358,-1.571,-0.298,-0.65,-0.087,-1.937,0.651
-1.33,0.085,0.524,-1.43,-1.793,-0.32,-0.906,-0.205,-1.94,0.592
-1.212,-0.388,0.702,-1.341,-2.524,-0.411,-1.025,-0.515,-1.205,0.36
-0.566,-0.242,0.306,-1.424,-2.074,-0.491,0.04,-0.574,-1.588,0.835
-0.602,-0.317,0.32,-1.186,-1.534,-0.682,-0.875,-0.437,-1.567,0.184
-0.845,0.144,0.78,-1.052,-1.575,-0.214,-0.679,0.089,-0.731,0.265
-1.478,0.988,1.084,-1.073,-2.42,1.156,-1.385,0.642,0.449,-0.276
-1.458,-0.233,1.23,-1.105,-1.712,1.051,-1.949,0.312,1.073,0.005
-0.791,0.536,1.134,-0.961,-1.96,0.667,-0.858,-0.012,0.194,0.184
-1.387,1.104,1.189,-0.852,-2.121,1.793,-1.618,0.653,0.583,-0.311
-1.494,0.409,1.206,-1.08,-2.37,1.342,-1.893,0.764,1.013,-0.175
-1.249,-0.645,1.08,-1.078,-0.694,0.402,-1.234,-0.515,-0.299,-0.131
-0.989,0.728,1.126,-1.031,-1.659,1.158,-1.085,0.052,0.659,-0.017
-1.331,0.592,1.227,-1.227,-2.209,1.203,-1.801,0.349,0.899,0.319
-0.65,0.357,1.202,-1.156,-2.426,1.063,-0.77,0.261,0.694,-0.023
-1.37,0.804,1.244,-0.761,-2.395,1.43,-1.681,0.203,0.738,-0.156
-1.566,0.988,1.271,-1.227,-2.502,1.625,-2.231,0.943,1.672,0.011
-1.5,0.574,1.261,-1.063,-2.585,1.411,-1.986,0.502,1.223,-0.3
-1.477,-0.017,1.272,-1.034,-2.292,0.368,-1.875,-0.481,-0.115,-0.328
0.024,1.45,-1.78,-0.037,-0.363,-1.571,0.955,0.78,5.715,0.609
